Result  1: 552464
Result  2: 20628
Result  3: 12124
Result  4: 12400
Result  5: 11840
Result  6: 11304
Result  7: 12216
Result  8: 11704
Result  9: 10824
Result 10: 11746
Result 11: 9952
Result 12: 10400
Result 13: 11860
Result 14: 10624
Result 15: 11620
Result 16: 10164
Result 17: 10580
Result 18: 10068
Result 19: 11636
Result 20: 11060
