Result  1: 0.499723
Result  2: 0.470726
Result  3: 0.464514
Result  4: 0.469999
Result  5: 0.472230
Result  6: 0.477686
Result  7: 0.471607
Result  8: 0.466534
Result  9: 0.465814
Result 10: 0.466118
Result 11: 0.463616
Result 12: 0.466339
Result 13: 0.465532
Result 14: 0.474317
Result 15: 0.469137
Result 16: 0.484867
Result 17: 0.464450
Result 18: 0.469323
Result 19: 0.468249
Result 20: 0.471867